Test,Mental Demand,Physical Demand,Temporal Demand,Performance,Effort,Frustration
Gaze,4.125,2.33333333333333,3.375,4.20833333333333,3.66666666666667,3.45833333333333
Gesture,4.91666666666667,7.25,4.45833333333333,6.375,6.125,6
Push,4.20833333333333,4.66666666666667,3.70833333333333,4.29166666666667,4.79166666666667,3.66666666666667
Grab,3.95833333333333,4.91666666666667,3.375,5,4.54166666666667,4