Age,Gender,Visioin Aids,Education/Major,Work,Gamer?,MotionSickness?
23,Female,TRUE,"Medicin o teknik, civilingenjör",Student,FALSE,FALSE
36,Male,FALSE,Civilingenjör,IT - QA,FALSE,FALSE
21,Female,FALSE,Maskinteknik (TD),Student,FALSE,FALSE
20,Male,TRUE,Infocom,Student,FALSE,FALSE
23,Male,TRUE,Computer Science  ,Lunicore IT-Konsult,TRUE,FALSE
28,Female,FALSE,Elektroteknik civ. ing,Techmandria,FALSE,TRUE
22,Male,TRUE,Teknisk matematik,Student,TRUE,FALSE
24,Male,TRUE,MS CS,Nokia Software Developer,TRUE,FALSE
26,Female,TRUE,Elektroteknik civ. ing,Student,FALSE,FALSE
19,Female,TRUE,Infocom,Student,FALSE,FALSE
21,Male,FALSE,Infocom,Student,TRUE,FALSE
19,Female,FALSE,Infocom,Student,FALSE,FALSE
23,Female,FALSE,Infocom,Student,FALSE,FALSE
22,Male,FALSE,Infocom,"Web design, app development",FALSE,FALSE
19,Female,TRUE,Infocom,"Student, baskettränare, skribent",FALSE,FALSE
31,Male,TRUE,"Industrial engineer, master in fire safety engineering",Student,FALSE,FALSE
21,Female,FALSE,CivilekoFALSEm,"Student, posten",FALSE,FALSE
37,Male,TRUE,Computer Science Civilingenjör,Engineer/Software developer in Mobile industry,TRUE,FALSE
23,Male,FALSE,Environmental engineering,Student,FALSE,FALSE
29,Male,FALSE,Elektroteknik civ. ing,Student,FALSE,FALSE
23,Male,TRUE,Teknisk fysik - Civilingenjör,Student,TRUE,FALSE
