Mental Demand,Physical Demand,Temporal Demand,Performance,Effort,Frustration
2,3,3,1,1,1
5,4,8,4,1,2
3,2,2,1,3,4
2,2,3,1,2,1
1,3,1,1,2,1
3,8,3,4,9,4
5,5,6,2,7,4
2,2,2,5,3,1
2,4,2,2,2,2
12,12,2,14,9,2
1,1,1,1,3,1
3,3,4,2,3,3
2,2,2,2,2,2
2,2,1,3,2,1
8,7,6,8,9,5
2,2,1,5,3,8
5,4,7,5,5,4
5,5,5,4,6,6
5,6,3,6,6,5
3,7,1,4,8,9
5,5,6,2,7,4